<?xml version="1.0" encoding="UTF-8"?>
<svg width="21px" height="21px" viewBox="0 0 21 21" version="1.1" xmlns="http://www.w3.org/2000/svg" xmlns:xlink="http://www.w3.org/1999/xlink">
    <!-- Generator: Sketch 50.2 (55047) - http://www.bohemiancoding.com/sketch -->
    <title>Shape</title>
    <desc>Created with Sketch.</desc>
    <defs></defs>
    <g id="Page-1" stroke="none" stroke-width="1" fill="none" fill-rule="evenodd">
        <g id="App_Signaler-etape2" transform="translate(-176.000000, -362.000000)" fill="#FA6E5F" fill-rule="nonzero">
            <g id="Group-24" transform="translate(0.000000, 163.000000)">
                <g id="Group-23" transform="translate(0.000000, 25.000000)">
                    <g id="Group-22" transform="translate(24.000000, 20.000000)">
                        <g id="Group-8" transform="translate(1.000000, 119.000000)">
                            <g id="Group-16" transform="translate(35.000000, 35.000000)">
                                <g id="noun_364974_cc">
                                    <path d="M135.581333,2.80361538 C136.4967,2.80361538 136.923233,3.34592308 136.923233,4.00938462 L136.923233,9.64638462 C136.923233,10.2791538 136.4358,10.7919231 135.794833,10.8519231 L123.481367,12.2086154 C122.475467,12.3288462 122.354133,13.6253077 123.542267,13.6253077 L135.9892,13.6253077 C137.3297,13.6253077 137.3297,15.5854615 135.9892,15.5854615 L123.2989,15.5854615 C120.616733,15.5854615 119.610833,12.6616154 121.714333,11.1233077 L122.780667,10.3396154 L119.000667,2.17107692 L117.0745,2.17107692 C115.641833,2.17107692 115.641833,0 117.0745,0 L119.305867,0 C120.402067,0 120.707267,0.512769231 121.043267,1.29646154 L121.806033,2.80384615 L135.581333,2.80384615 L135.581333,2.80361538 Z M124.0794,18.9004615 C124.0794,19.9257692 123.255967,20.7699231 122.158367,20.7699231 C121.122833,20.7699231 120.268133,19.926 120.268133,18.9004615 C120.268133,17.8460769 121.122833,17.0019231 122.158367,17.0019231 C123.255733,17.0019231 124.0794,17.8458462 124.0794,18.9004615 Z M123.542267,6.54092308 L126.620167,6.54092308 L125.9505,4.49146154 L122.597033,4.49146154 L123.542267,6.54092308 Z M127.687667,10.0684615 L126.895267,7.62623077 L123.9996,7.62623077 L125.2484,10.3098462 L127.687667,10.0684615 Z M127.047633,4.49146154 L127.687667,6.54092308 L130.705367,6.54092308 L130.217467,4.49146154 L127.047633,4.49146154 Z M131.497533,9.67592308 L130.888533,7.62646154 L127.9917,7.62646154 L128.754467,9.94823077 L131.497533,9.67592308 Z M135.246733,4.49146154 L131.3153,4.49146154 L131.7717,6.54092308 L135.246733,6.54092308 L135.246733,4.49146154 Z M136.971767,18.9004615 C136.971767,19.9257692 136.148333,20.7699231 135.081767,20.7699231 C134.014967,20.7699231 133.161667,19.926 133.161667,18.9004615 C133.161667,17.8460769 134.014967,17.0019231 135.081767,17.0019231 C136.148333,17.0019231 136.971767,17.8458462 136.971767,18.9004615 Z M135.246733,7.62623077 L132.016,7.62623077 L132.503433,9.52615385 L135.246733,9.25384615 L135.246733,7.62623077 Z" id="Shape"></path>
                                </g>
                            </g>
                        </g>
                    </g>
                </g>
            </g>
        </g>
    </g>
</svg>