<?xml version="1.0" encoding="UTF-8"?>
<svg width="5px" height="9px" viewBox="0 0 5 9" version="1.1" xmlns="http://www.w3.org/2000/svg" xmlns:xlink="http://www.w3.org/1999/xlink">
    <!-- Generator: Sketch 50.2 (55047) - http://www.bohemiancoding.com/sketch -->
    <title>Shape</title>
    <desc>Created with Sketch.</desc>
    <defs></defs>
    <g id="Page-1" stroke="none" stroke-width="1" fill="none" fill-rule="evenodd">
        <g id="App_Menu" transform="translate(-245.000000, -515.000000)" fill="#B8B8B8" fill-rule="nonzero">
            <g id="Group-15" transform="translate(30.000000, 510.000000)">
                <path d="M216.14767,9.50060986 L219.85535,5.83412123 C219.976457,5.71437036 220.026437,5.53706203 219.986464,5.36898656 C219.946491,5.2009111 219.822637,5.06760317 219.661558,5.01927857 C219.500478,4.97095398 219.326645,5.01495437 219.205539,5.13470524 L215.144802,9.15090187 C215.05231,9.24220961 215,9.36854219 215,9.50060986 C215,9.63267752 215.05231,9.75901011 215.144802,9.85031785 L219.205539,13.8653044 C219.392753,14.0504232 219.689985,14.0439221 219.869426,13.8507837 C220.048866,13.6576453 220.042564,13.3510072 219.85535,13.1658884 L216.14767,9.50060986 Z" id="Shape" transform="translate(217.500000, 9.500000) scale(-1, 1) translate(-217.500000, -9.500000) "></path>
            </g>
        </g>
    </g>
</svg>