<?xml version="1.0" encoding="UTF-8"?>
<svg width="14px" height="20px" viewBox="0 0 14 20" version="1.1" xmlns="http://www.w3.org/2000/svg" xmlns:xlink="http://www.w3.org/1999/xlink">
    <!-- Generator: Sketch 50.2 (55047) - http://www.bohemiancoding.com/sketch -->
    <title>Shape</title>
    <desc>Created with Sketch.</desc>
    <defs></defs>
    <g id="Symbols" stroke="none" stroke-width="1" fill="none" fill-rule="evenodd">
        <g id="TAB-BAR-profil" transform="translate(-164.000000, -16.000000)" fill="#B8B8B8">
            <g id="Group-3" transform="translate(164.000000, 16.000000)">
                <g id="noun_1168511_cc">
                    <path d="M7,0 C10.8598131,0 14,3.1372549 14,6.99346405 C14,10 9.94392523,16.0130719 7.71962617,19.5424837 C6.93457944,20.4575163 6.41121495,19.7385621 6.28037383,19.6078431 C4.05607477,16.0130719 0,9.73856209 0,6.99346405 C0,3.1372549 3.14018692,0 7,0 Z M7,3.52941176 C8.76635514,3.52941176 10.271028,4.96732026 10.271028,6.79738562 C10.271028,8.62745098 8.76635514,10.130719 7,10.130719 C5.1682243,10.130719 3.6635514,8.62745098 3.6635514,6.79738562 C3.6635514,4.96732026 5.1682243,3.52941176 7,3.52941176 Z" id="Shape"></path>
                </g>
            </g>
        </g>
    </g>
</svg>