<?xml version="1.0" encoding="UTF-8"?>
<svg width="48px" height="48px" viewBox="0 0 48 48" version="1.1" xmlns="http://www.w3.org/2000/svg" xmlns:xlink="http://www.w3.org/1999/xlink">
    <!-- Generator: Sketch 50.2 (55047) - http://www.bohemiancoding.com/sketch -->
    <title>noun_111784_cc</title>
    <desc>Created with Sketch.</desc>
    <defs></defs>
    <g id="Page-1" stroke="none" stroke-width="1" fill="none" fill-rule="evenodd" stroke-linecap="round" stroke-linejoin="round">
        <g id="App_Signaler_1/3-Copy" transform="translate(-33.000000, -509.000000)" stroke="#9B9B9B" stroke-width="1.97119977">
            <g id="Group-15" transform="translate(25.000000, 466.000000)">
                <g id="Group-14" transform="translate(0.000000, 35.000000)">
                    <g id="Group-9">
                        <g id="noun_111784_cc" transform="translate(9.000000, 9.000000)">
                            <g id="Group">
                                <path d="M27.23,40.824 C27.487,37.787 28.048,34.449 28.928,30.992 C32.043,18.775 37.973,9.73 42.171,10.789 C46.37,11.848 47.25,22.61 44.135,34.83 C43.295,38.123 42.25,41.187 41.09,43.883" id="Shape"></path>
                                <path d="M42.172,10.79 L34.289,41.711" id="Shape"></path>
                                <path d="M4.765,46 C4.765,46 24.572,34.742 44.769,46" id="Shape"></path>
                                <ellipse id="Oval" cx="12.474" cy="12.408" rx="5.842" ry="5.811"></ellipse>
                                <g id="Shape">
                                    <g transform="translate(12.000000, 0.000000)">
                                        <path d="M0.474,0 L0.474,6.339"></path>
                                        <path d="M0.474,18.476 L0.474,24.814"></path>
                                    </g>
                                    <g transform="translate(0.000000, 12.000000)">
                                        <path d="M24.947,0.408 L18.575,0.408"></path>
                                        <path d="M6.372,0.408 L0,0.408"></path>
                                    </g>
                                </g>
                                <g transform="translate(3.000000, 3.000000)" id="Shape">
                                    <g>
                                        <path d="M18.294,0.634 L13.787,5.116"></path>
                                        <path d="M5.159,13.699 L0.653,18.181"></path>
                                    </g>
                                    <g>
                                        <path d="M18.294,18.181 L13.788,13.699"></path>
                                        <path d="M5.159,5.116 L0.653,0.634"></path>
                                    </g>
                                </g>
                            </g>
                        </g>
                    </g>
                </g>
            </g>
        </g>
    </g>
</svg>