<?xml version="1.0" encoding="UTF-8"?>
<svg width="19px" height="20px" viewBox="0 0 19 20" version="1.1" xmlns="http://www.w3.org/2000/svg" xmlns:xlink="http://www.w3.org/1999/xlink">
    <!-- Generator: Sketch 50.2 (55047) - http://www.bohemiancoding.com/sketch -->
    <title>Group</title>
    <desc>Created with Sketch.</desc>
    <defs></defs>
    <g id="Symbols" stroke="none" stroke-width="1" fill="none" fill-rule="evenodd">
        <g id="TAB-BAR-carte" transform="translate(-286.000000, -15.000000)" fill="#B8B8B8" fill-rule="nonzero">
            <g id="Group-4" transform="translate(286.000000, 15.000000)">
                <g id="noun_956157_cc">
                    <g id="Group" transform="translate(0.326781, 0.000000)">
                        <path d="M14.4717445,5.26315789 C14.4717445,2.36842105 12.1609337,0 9.33660934,0 C6.51228501,0 4.2014742,2.36842105 4.2014742,5.26315789 C4.2014742,8.15789474 6.51228501,10.5263158 9.33660934,10.5263158 C12.1609337,10.5263158 14.4717445,8.15789474 14.4717445,5.26315789 Z" id="Shape"></path>
                        <path d="M11.3673219,11.6267943 C10.7137592,11.8421053 10.036855,11.9617225 9.33660934,11.9617225 C8.63636364,11.9617225 7.95945946,11.8421053 7.30589681,11.6267943 C5.25184275,10.9330144 2.96437346,11.507177 1.61056511,13.2057416 C0.606879607,14.4736842 0,16.1004785 0,17.84689 C0,18.8277512 0.77027027,19.6172249 1.72727273,19.6172249 L16.9459459,19.6172249 C17.9029484,19.6172249 18.6732187,18.8277512 18.6732187,17.84689 C18.6732187,16.1004785 18.0663391,14.4736842 17.0626536,13.2057416 C15.6855037,11.507177 13.4213759,10.9330144 11.3673219,11.6267943 Z" id="Shape"></path>
                    </g>
                </g>
            </g>
        </g>
    </g>
</svg>