<?xml version="1.0" encoding="UTF-8"?>
<svg width="24px" height="22px" viewBox="0 0 24 22" version="1.1" xmlns="http://www.w3.org/2000/svg" xmlns:xlink="http://www.w3.org/1999/xlink">
    <!-- Generator: Sketch 50.2 (55047) - http://www.bohemiancoding.com/sketch -->
    <title>zone de déchet</title>
    <desc>Created with Sketch.</desc>
    <defs></defs>
    <g id="Page-1" stroke="none" stroke-width="1" fill="none" fill-rule="evenodd">
        <g id="Artboard-2" transform="translate(-126.000000, -54.000000)">
            <g id="zone-de-déchet" transform="translate(126.000000, 54.000000)">
                <rect id="Rectangle-2" fill="#FFFFFF" x="9" y="5" width="6" height="16"></rect>
                <g id="zone-dechets" fill="#FA6E5F" fill-rule="nonzero">
                    <path d="M23.3362836,17.8289766 L14.3928054,2.21854185 C13.8695742,1.45074203 13.0069751,0.983797896 12.0780227,0.965498374 C11.0789158,0.900697376 10.1296513,1.4087022 9.6293271,2.27593316 L0.838892314,17.4846288 C0.462844454,18.3813764 0.533807876,19.4032497 1.03019666,20.2394114 C1.03019666,20.2394114 1.33628362,21.0333245 2.94324014,21.5976723 L20.9067184,21.5976723 C21.8762848,21.5591765 22.7417395,20.9785081 23.1449793,20.0959332 C23.5888477,19.4215455 23.660859,18.5682118 23.3362836,17.8289766 Z M13.5313043,19.0868294 C13.5313043,19.3040012 13.3659216,19.4800537 13.1619117,19.4800537 L10.8006969,19.4800537 C10.7027279,19.4800537 10.6087714,19.4386248 10.5394969,19.3648809 C10.4702224,19.2911371 10.4313043,19.1911189 10.4313043,19.0868294 L10.4313043,16.573278 C10.4313043,16.3561062 10.596687,16.1800537 10.8006969,16.1800537 L13.1619117,16.1800537 C13.3659216,16.1800537 13.5313043,16.3561062 13.5313043,16.573278 L13.5313043,19.0868294 Z M13.5312561,14.2043478 C13.5312561,14.4737667 13.3658754,14.6921739 13.1618679,14.6921739 L10.8006808,14.6921739 C10.5966734,14.6921739 10.4312927,14.4737667 10.4312927,14.2043478 L10.4312927,7.39391304 C10.4299366,7.26892655 10.4664414,7.14840284 10.5326933,7.05913043 C10.6008314,6.96571805 10.6952344,6.91377151 10.7934379,6.91565217 L13.154625,6.91565217 C13.2528285,6.91377151 13.3472315,6.96571805 13.4153696,7.05913043 C13.4842794,7.14681774 13.5234559,7.26753922 13.5240132,7.39391304 L13.5312561,14.2043478 Z" id="Shape"></path>
                </g>
            </g>
        </g>
    </g>
</svg>